<svg version="1.1" id="logo" xmlns="http://www.w3.org/2000/svg" xmlns:xlink="http://www.w3.org/1999/xlink" x="0px" y="0px" viewBox="0 0 1020 200" xml:space="preserve">
	<g id="text">
		<path class="q" d="M276.4,87.3c-2.7-1-5.6-1.8-8.6-2.3c-3-0.5-6.1-0.8-9.3-0.8c-3.2,0-6.3,0.3-9.3,0.8 c-3,0.5-5.8,1.3-8.6,2.3c-5.6,2.1-10.4,5.1-14.4,8.8c-2,1.9-3.9,4-5.4,6.2c-1.6,2.3-2.9,4.7-4.1,7.3c-1.1,2.6-2,5.4-2.5,8.3 c-0.6,2.9-0.9,6-0.9,9.1c0,3.4,0.3,6.6,0.8,9.7c0.5,3,1.4,5.9,2.4,8.5c2.1,5.3,5.2,9.8,9.1,13.4c3.9,3.7,8.5,6.4,14,8.3 c2.8,0.9,5.7,1.6,8.7,2.1c3,0.4,6.2,0.7,9.5,0.7h50.8v-16.1l-17.6,0.4v-0.4l4.5-4.3c1.5-1.8,2.8-3.9,4-6.1c1.2-2.3,2.1-4.8,2.8-7.6 c0.7-2.8,1-5.8,1-9c0-6.3-1.1-12-3.3-17.3c-2.2-5.2-5.4-9.7-9.4-13.4c-2-1.9-4.2-3.6-6.5-5C281.7,89.6,279.1,88.4,276.4,87.3  M275.5,109.4c2.1,2.2,3.7,4.9,4.8,7.9c1.1,3.1,1.7,6.4,1.7,10c0,3.7-0.6,7.2-1.8,10.3c-1.2,3.1-2.8,5.8-4.9,8 c-2.1,2.3-4.6,4-7.6,5.2c-2.9,1.2-6.1,1.9-9.4,1.9c-3.4,0-6.6-0.6-9.5-1.9c-2.9-1.2-5.3-2.9-7.4-5.2c-2.1-2.2-3.7-4.9-4.8-8 c-1.1-3.1-1.7-6.5-1.7-10.3c0-3.6,0.6-7,1.7-10c1.2-3.1,2.8-5.7,4.9-7.9c2.1-2.2,4.6-3.9,7.5-5.1c2.9-1.2,6-1.8,9.4-1.8 c3.5,0,6.6,0.6,9.5,1.8C270.9,105.5,273.4,107.2,275.5,109.4z"/>
		<path class="u" d="M371.2,111.1h-19.3v31.7c0,3.4-0.9,6.3-2.7,8.9c-0.9,1.2-1.9,2.2-3.2,2.8c-1.3,0.6-2.8,0.9-4.5,0.9 c-1.8,0-3.2-0.3-4.3-1c-1.1-0.7-2-1.6-2.7-2.8c-0.6-1.2-1.1-2.5-1.3-4l-0.3-4.7v-31.8h-19.4v36.3c0,3,0.4,5.9,1.1,8.8 c0.8,2.9,2,5.4,3.7,7.7c1.7,2.2,3.9,4,6.6,5.5c2.7,1.4,6,2.1,10,2.1c2,0,4-0.3,5.8-0.9l5.1-2.1c1.5-0.8,2.9-1.9,4-3.1l2.8-3.7h0.2 v8.1h18.6V111.1z"/>
		<path class="o" d="M435.3,117.5c-2.9-2.7-6.4-4.7-10.3-6.1c-3.9-1.4-8.1-2.1-12.6-2.1c-4.4,0-8.6,0.7-12.5,2.1 s-7.4,3.5-10.3,6.1c-3,2.6-5.3,5.9-7,9.8c-1.7,3.8-2.6,8.1-2.6,12.9c0,4.8,0.9,9.1,2.6,13c1.7,3.9,4.1,7.2,7,9.9 c2.9,2.7,6.4,4.8,10.3,6.3s8.1,2.2,12.5,2.2c4.5,0,8.7-0.7,12.6-2.2c3.9-1.5,7.4-3.6,10.3-6.3c3-2.7,5.4-6,7.1-9.9 c0.9-1.9,1.5-3.9,1.9-6.1l0.6-6.8l-0.6-6.8c-0.4-2.1-1.1-4.2-1.9-6.1C440.6,123.4,438.2,120.2,435.3,117.5 M425.4,134.7 c0.6,1.8,1,3.6,1,5.5c0,1.9-0.3,3.7-0.9,5.5c-0.6,1.8-1.4,3.4-2.6,4.9c-1.1,1.5-2.6,2.6-4.3,3.5c-1.7,0.8-3.7,1.3-6,1.3 c-2.3,0-4.3-0.4-6-1.3c-1.7-0.9-3.2-2-4.3-3.5c-1.2-1.4-2.1-3.1-2.7-4.9c-0.6-1.8-0.9-3.6-0.9-5.5c0-1.9,0.3-3.7,0.9-5.5 c0.6-1.8,1.4-3.4,2.6-4.8c1.1-1.4,2.6-2.5,4.3-3.4c1.7-0.8,3.7-1.3,6-1.3c2.3,0,4.3,0.4,6,1.3c1.7,0.9,3.2,2,4.3,3.4 C423.9,131.3,424.7,132.9,425.4,134.7z"/>
		<path class="t" d="M474.7,125.5h13.7v-14.4h-13.7V95.7h-19v15.4h-9.3v14.4h9.4v24.8c0,3.1,0.3,6,1,8.6 c0.7,2.6,1.9,4.8,3.5,6.6c1.6,1.8,3.7,3.3,6.4,4.2c2.7,1,6,1.5,9.9,1.5l6.2-0.6l5.1-1.2l-0.2-14.1L485,156l-3,0.2 c-2.7,0-4.7-0.7-5.7-2c-1-1.4-1.6-3.5-1.6-6.2V125.5z"/>
		<path class="e" d="M534.8,111.4c-3.6-1.4-7.6-2.2-11.9-2.2c-4.5,0-8.7,0.7-12.5,2.2c-3.9,1.5-7.2,3.6-10,6.3 c-2.8,2.7-5.1,6-6.7,9.9l-1.8,6.2l-0.6,6.8l0.6,7c0.4,2.2,1.1,4.3,1.9,6.2c1.7,3.8,4,7.1,6.9,9.7c3,2.6,6.4,4.7,10.3,6 c3.9,1.4,8.1,2.1,12.5,2.1c6,0,11.2-1.1,15.7-3.3c4.5-2.1,8.2-5.2,10.9-9.2l-13.4-8.5c-1.3,1.8-3.1,3.3-5.2,4.4 c-2.1,1.1-4.7,1.7-7.7,1.7c-1.7,0-3.4-0.3-5-0.9c-1.6-0.5-3-1.3-4.3-2.3c-1.3-1-2.3-2.1-3.2-3.4c-0.8-1.3-1.3-2.8-1.5-4.5h42.5 l0.1-4.6c0-5-0.7-9.5-2.2-13.4c-1.5-3.9-3.5-7.3-6.1-10C541.4,115,538.4,112.9,534.8,111.4 M531.6,125.9c1.9,2.2,2.9,4.8,2.9,7.9 h-24.9c0.1-1.5,0.5-2.9,1.2-4.3c0.7-1.4,1.6-2.6,2.8-3.6c1.2-1,2.5-1.8,4.1-2.4s3.3-0.9,5.2-0.9s3.6,0.3,5.1,0.8 C529.5,123.9,530.6,124.8,531.6,125.9z"/>
		<path class="m" d="M637.1,112.7h0.4l-0.5,59h19.8V88.3h-29.1l-18.1,53.5H609l-19-53.5h-28.7v83.4h18.9l-0.4-59h0.3 l21.1,59h14.1L637.1,112.7z"/>
		<path class="o" d="M676,119.4c-3,2.6-5.3,5.9-7,9.8c-1.7,3.8-2.6,8.1-2.6,12.9c0,4.8,0.9,9.1,2.6,13 c1.7,3.9,4.1,7.2,7,9.9c2.9,2.7,6.4,4.8,10.3,6.3c3.9,1.5,8.1,2.2,12.5,2.2c4.5,0,8.7-0.7,12.6-2.2c3.9-1.5,7.4-3.6,10.3-6.3 c3-2.7,5.4-6,7.1-9.9c0.9-1.9,1.5-3.9,1.9-6.1l0.6-6.8l-0.6-6.8c-0.4-2.1-1.1-4.2-1.9-6.1c-1.7-3.9-4.1-7.2-7.1-9.8 c-2.9-2.7-6.4-4.7-10.3-6.1c-3.9-1.4-8.1-2.1-12.6-2.1c-4.4,0-8.6,0.7-12.5,2.1C682.4,114.7,678.9,116.8,676,119.4 M692.9,128.5 c1.7-0.8,3.7-1.3,6-1.3s4.3,0.4,6,1.3c1.7,0.9,3.2,2,4.3,3.4c1.2,1.4,2.1,3,2.7,4.8c0.6,1.8,1,3.6,1,5.5c0,1.9-0.3,3.7-0.9,5.5 c-0.6,1.8-1.4,3.4-2.6,4.9c-1.1,1.5-2.6,2.6-4.3,3.5c-1.7,0.8-3.7,1.3-6,1.3c-2.3,0-4.3-0.4-6-1.3c-1.7-0.9-3.2-2-4.3-3.5 c-1.2-1.4-2.1-3.1-2.7-4.9s-0.9-3.6-0.9-5.5c0-1.9,0.3-3.7,0.9-5.5s1.4-3.4,2.6-4.8C689.7,130.5,691.2,129.4,692.9,128.5z"/>
		<path class="n" d="M793.5,119.1c-1.7-2.3-3.9-4.1-6.7-5.5c-2.7-1.4-6.1-2.1-10-2.1c-2,0-3.9,0.3-5.8,0.9l-5,2.1 c-1.5,0.8-2.9,1.9-4,3.1l-2.8,3.7h-0.2v-8.1h-18.7v58.6h19.5v-31.8l0.6-4.8c0.4-1.5,1-2.9,1.9-4.1c0.9-1.1,1.9-2.1,3.2-2.8 c1.3-0.6,2.8-1,4.5-1c1.7,0,3.2,0.3,4.3,1c1.1,0.7,2,1.6,2.7,2.7l1.4,4l0.4,4.7v32h19.4v-36.3c0-2.9-0.4-5.8-1.2-8.7 C796.4,123.8,795.2,121.3,793.5,119.1z"/>
		<path class="k" d="M871.5,113.1h-23.4l-18.7,23.8H829V82.7h-19.5v89H829v-28.1h0.3l19.2,28.1h23.9l-23.6-32.1L871.5,113.1 z"/>
		<path class="e" d="M914.5,113.3c-3.6-1.4-7.6-2.2-11.9-2.2c-4.5,0-8.7,0.7-12.5,2.2c-3.9,1.5-7.2,3.6-10,6.3 c-2.8,2.7-5.1,6-6.7,9.9l-1.8,6.2l-0.6,6.8l0.6,7c0.4,2.2,1.1,4.3,1.9,6.2c1.7,3.8,4,7.1,6.9,9.7c3,2.6,6.4,4.7,10.3,6 c3.9,1.4,8.1,2.1,12.5,2.1c6,0,11.2-1.1,15.7-3.3c4.5-2.1,8.2-5.2,10.9-9.2l-13.4-8.5c-1.3,1.8-3.1,3.3-5.2,4.4 c-2.1,1.1-4.7,1.7-7.7,1.7c-1.7,0-3.4-0.3-5-0.9c-1.6-0.5-3-1.3-4.3-2.3c-1.3-1-2.3-2.1-3.2-3.4c-0.8-1.3-1.3-2.8-1.5-4.5h42.5 l0.1-4.6c0-5-0.7-9.5-2.2-13.4c-1.5-3.9-3.5-7.3-6.1-10C921.2,116.9,918.1,114.8,914.5,113.3 M911.4,127.8c1.9,2.2,2.9,4.8,2.9,7.9 h-24.9c0.1-1.5,0.5-2.9,1.2-4.3c0.7-1.4,1.6-2.6,2.8-3.6c1.2-1,2.5-1.8,4.1-2.4s3.3-0.9,5.2-0.9c1.9,0,3.6,0.3,5.1,0.8 C909.2,125.9,910.4,126.7,911.4,127.8z"/>
		<path class="y" d="M967.9,150.7h-0.3l-13.1-37.6H933l24.5,57.7l-1.9,4.8c-0.9,2.5-2.1,4.4-3.4,5.8 c-1.3,1.4-3.5,2.1-6.5,2.1l-3.1-0.3l-3.1-0.8l-2.1,16.3l5,0.9l5.6,0.4c3.7,0,6.9-0.4,9.6-1.3c2.7-0.9,5.1-2.2,7.1-3.9 c2-1.7,3.7-3.7,5.2-6.1c1.5-2.4,2.8-5.1,4-8.2l26.2-67.5h-20.5L967.9,150.7z"/>
	</g>
	<g id="icon" fill="#FC8B01">
		<path class="head" d="M139.3,0c-0.1,0-0.2,0-0.2,0c-27.5,1.3-51.1,11.9-70.9,31.7c-21.2,21.2-31.8,46.8-31.8,76.8v4.5 c0,21.2,7.5,39.4,22.5,54.4c8.6,8.6,18.2,14.8,28.9,18.4c0.1,0,0.3,0.1,0.4,0.1c0,0,0.1,0,0.1,0c0,0,0.1,0,0.1,0c0.1,0,0.2,0,0.3,0 c0.3,0,0.6-0.1,0.8-0.4c0.2-0.2,0.4-0.5,0.4-0.8c0-0.3-0.1-0.6-0.4-0.8c0,0,0,0,0,0c-0.1-0.1-0.1-0.1-0.2-0.1 c-0.1-0.1-0.2-0.2-0.3-0.2c-14.7-11.8-23-27.1-25.1-45.8c-1.3-11.6,1.7-21.9,9-31c6.9-8.6,15.7-13.7,26.5-15.3 c0.6-0.1,1.2-0.2,1.9-0.2c3.2-0.4,6.3-0.2,9.2,0.6c3.5,0.9,6.9,2.6,9.9,5c2.8,2.3,5,4.9,6.6,7.8h0c0.1,0.3,0.3,0.5,0.5,0.7 c0.4,0.4,1,0.7,1.6,0.7c0.6,0,1.2-0.2,1.6-0.7c0.3-0.3,0.4-0.5,0.5-0.8c0-0.1,0.1-0.1,0.1-0.2c0-0.2,0.1-0.3,0.1-0.5 c1.6-5,4.6-8.9,9.1-11.8c5.2-3.4,10.8-4.4,16.9-3.1c9.8,2.1,17.4,7.3,22.9,15.7c5.4,8.4,7.1,17.5,5.1,27.3 c-0.3,1.6-0.7,3.1-1.2,4.7c0,0.1-0.1,0.3-0.1,0.4c0,0.1-0.1,0.2-0.1,0.2c0,0.1,0,0.1,0,0.2c0,0.3,0.1,0.6,0.4,0.8 c0.2,0.2,0.5,0.4,0.8,0.4c0.3,0,0.6-0.1,0.8-0.4c0.1-0.1,0.2-0.2,0.3-0.4h0c2.6-7.8,3.9-16,3.9-24.9c0-21.2-7.5-39.4-22.5-54.4 c-6.7-6.7-13.8-11.9-21.5-15.7c-2.4-1.2-4.5-2.7-6.3-4.5c-5.7-5.7-8.6-12.7-8.6-20.8c0-5,1.8-9.3,5.3-12.9c1-1,2-1.8,3.1-2.5 c0.1-0.1,0.2-0.1,0.3-0.2c0,0,0.1-0.1,0.1-0.1c0.2-0.2,0.3-0.5,0.3-0.8s-0.1-0.6-0.3-0.8C139.8,0.1,139.5,0,139.3,0z"/>
		<path class="hair" d="M144.4,14.7c0-0.3-0.1-0.6-0.3-0.8c-0.2-0.2-0.5-0.3-0.7-0.3c-0.1,0-0.2,0-0.4,0 c-4.2,0.4-7.8,2.1-10.9,5.2c-3.5,3.5-5.3,7.8-5.3,12.8s1.8,9.3,5.3,12.8c3.5,3.5,7.8,5.3,12.8,5.3c3.3,0,6.3-0.8,9-2.3 c-0.8-0.7-1.6-1.4-2.4-2.1c-5.7-5.7-8.6-12.7-8.6-20.8c0-3.3,0.5-6.3,1.4-9.2c0-0.1,0.1-0.2,0.1-0.3 C144.4,14.8,144.4,14.7,144.4,14.7z"/>
		<path class="ear"  d="M37.4,95.5c-1.1-1.1-2.2-2-3.3-2.9c-0.1,0-0.1-0.1-0.2-0.2c-4.5-3.3-9.7-4.9-15.6-4.9h-0.1 c0,0,0,0,0,0H18c-4.9,0-9.2,1.8-12.7,5.3v0c-3.5,3.5-5.3,7.8-5.3,12.8v0c0,5,1.8,9.2,5.3,12.8c3.5,3.5,7.8,5.3,12.8,5.3h0 c2.3,0,4.4-0.4,6.4-1.1c0.2-0.1,0.4-0.1,0.5-0.2c0.5-0.2,0.9-0.5,1.3-0.9c0.9-0.9,1.3-2,1.3-3.2c0-1.3-0.4-2.3-1.3-3.2 c-0.9-0.9-1.9-1.3-3.2-1.3c-0.6,0-1.1,0.1-1.6,0.3c-0.1,0-0.1,0.1-0.2,0.1c-1,0.4-2.1,0.6-3.2,0.6c0,0,0,0,0,0 c-2.5,0-4.6-0.9-6.4-2.7c-1.8-1.8-2.7-3.9-2.7-6.4v0c0-2.5,0.9-4.7,2.7-6.4c1.7-1.7,3.8-2.6,6.3-2.6h0.2c4.9,0,9.2,1.8,12.7,5.3 c3.5,3.5,5.3,7.8,5.3,12.8v0.6c0,1.3,0.4,2.3,1.3,3.2s1.9,1.3,3.2,1.3s2.3-0.4,3.2-1.3c0.9-0.9,1.3-1.9,1.3-3.2v-0.6 C45.3,107.2,42.7,100.8,37.4,95.5z"/>
		<path class="face" d="M126.9,151.9c0-0.8-0.2-1.5-0.7-2c-0.4-0.6-1-0.8-1.6-0.8c-0.6,0-1.2,0.3-1.6,0.8 c-0.4,0.6-0.7,1.2-0.7,2c0,0.8,0.2,1.5,0.7,2c0.5,0.6,1,0.8,1.6,0.8c0.6,0,1.2-0.3,1.6-0.8C126.6,153.4,126.9,152.7,126.9,151.9  M140.4,151.5c0-0.7-0.2-1.2-0.6-1.7c-0.4-0.5-0.8-0.7-1.4-0.7c-0.5,0-1,0.2-1.4,0.7c-0.4,0.5-0.6,1-0.6,1.7c0,0.7,0.2,1.2,0.6,1.7 c0.4,0.5,0.8,0.7,1.4,0.7c0.5,0,1-0.2,1.4-0.7C140.2,152.7,140.4,152.1,140.4,151.5 M164.8,129.3c0-2.6-0.8-4.9-2.3-6.7 c-1.5-1.9-3.3-2.8-5.4-2.8s-3.9,0.9-5.5,2.8c-1.5,1.9-2.3,4.1-2.3,6.7c0,2.6,0.8,4.9,2.3,6.7c1.5,1.9,3.3,2.8,5.5,2.8 s3.9-0.9,5.4-2.8C164.1,134.2,164.8,131.9,164.8,129.3z"/>
		<path class="eye"  d="M95.5,123.1c-1.8,2.2-2.7,4.9-2.7,8s0.9,5.8,2.7,8s3.9,3.3,6.5,3.3c2.5,0,4.7-1.1,6.5-3.3 s2.7-4.9,2.7-8s-0.9-5.8-2.7-8c-1.8-2.2-3.9-3.3-6.5-3.3S97.3,120.9,95.5,123.1"/>
		<path class="wink" stroke-linecap="round" fill="none" stroke="#FC8B01" stroke-width="3px" d="M111.2,130.8c-7.3-0.8-13.7-1.3-23.5,3.1"/>
	</g>
	<path id="registered" fill="#2D2D2D" d="M1020,100.2c0,5.4-4.2,9.6-9.7,9.6c-5.4,0-9.8-4.2-9.8-9.6c0-5.3,4.3-9.5,9.8-9.5 C1015.8,90.7,1020,94.9,1020,100.2z M1002.9,100.2c0,4.2,3.1,7.6,7.4,7.6c4.2,0,7.2-3.4,7.2-7.5c0-4.2-3.1-7.6-7.3-7.6 C1006.1,92.6,1002.9,96,1002.9,100.2z M1008.8,105.1h-2.2v-9.5c0.9-0.2,2.1-0.3,3.6-0.3c1.8,0,2.6,0.3,3.3,0.7 c0.5,0.4,0.9,1.2,0.9,2.1c0,1-0.8,1.9-2,2.2v0.1c0.9,0.3,1.4,1,1.7,2.3c0.3,1.4,0.5,2,0.7,2.4h-2.4c-0.3-0.3-0.5-1.2-0.8-2.3 c-0.2-1-0.8-1.5-2-1.5h-1V105.1z M1008.8,99.8h1c1.2,0,2.2-0.4,2.2-1.4c0-0.9-0.6-1.4-2-1.4c-0.6,0-1,0.1-1.2,0.1V99.8z"/>
</svg>
